<?xml version="1.0" encoding="UTF-8"?>
<svg width="30px" height="14px" viewBox="0 0 30 14" version="1.1" xmlns="http://www.w3.org/2000/svg" xmlns:xlink="http://www.w3.org/1999/xlink">
    <!-- Generator: Sketch 62 (91390) - https://sketch.com -->
    <title>arrow_acesoria_cta_acessoria_white@1,5x</title>
    <desc>Created with Sketch.</desc>
    <g id="Page-1" stroke="none" stroke-width="1" fill="none" fill-rule="evenodd" stroke-linecap="round" stroke-linejoin="round">
        <g id="home" transform="translate(-450.000000, -3601.000000)" stroke="#FFFFFF">
            <g id="acessoria" transform="translate(0.000000, 3251.000000)">
                <g id="Group-10" transform="translate(131.000000, 97.000000)">
                    <g id="Group" transform="translate(2.000000, 234.000000)">
                        <g id="arrow_acesoria_cta_acessoria_white" transform="translate(318.000000, 19.000000)">
                            <line x1="-1.98951966e-13" y1="7" x2="28" y2="7" id="Path"></line>
                            <polyline id="Path" points="21 0 28 7 21 14"></polyline>
                        </g>
                    </g>
                </g>
            </g>
        </g>
    </g>
</svg>