<?xml version="1.0" encoding="UTF-8"?>
<svg width="21px" height="19px" viewBox="0 0 21 19" version="1.1" xmlns="http://www.w3.org/2000/svg" xmlns:xlink="http://www.w3.org/1999/xlink">
    <!-- Generator: Sketch 62 (91390) - https://sketch.com -->
    <title>arrow_left_white@1,5x</title>
    <desc>Created with Sketch.</desc>
    <g id="Page-1" stroke="none" stroke-width="1" fill="none" fill-rule="evenodd" stroke-linecap="round" stroke-linejoin="round">
        <g id="img" transform="translate(-16.000000, -366.000000)" stroke="#FFFFFF">
            <g id="Group-Copy" transform="translate(27.000000, 375.500000) rotate(-180.000000) translate(-27.000000, -375.500000) translate(0.000000, 281.000000)">
                <g id="arrow_left_white" transform="translate(27.500000, 94.500000) scale(-1, 1) translate(-27.500000, -94.500000) translate(18.000000, 85.000000)">
                    <line x1="18.8224793" y1="9.41123965" x2="0" y2="9.41123965" id="Path"></line>
                    <polyline id="Path" points="9.41123965 18.8224793 0 9.41123965 9.41123965 0"></polyline>
                </g>
            </g>
        </g>
    </g>
</svg>