<?xml version="1.0" encoding="UTF-8"?>
<svg width="14px" height="8px" viewBox="0 0 14 8" version="1.1" xmlns="http://www.w3.org/2000/svg" xmlns:xlink="http://www.w3.org/1999/xlink">
    <!-- Generator: Sketch 62 (91390) - https://sketch.com -->
    <title>chevron_up_black@1,5x</title>
    <desc>Created with Sketch.</desc>
    <g id="Page-1" stroke="none" stroke-width="1" fill="none" fill-rule="evenodd" opacity="0.5" stroke-linecap="round" stroke-linejoin="round">
        <g id="home" transform="translate(-609.000000, -4255.000000)" stroke="#000000" stroke-width="2">
            <g id="chevron_up_black" transform="translate(616.000000, 4259.000000) rotate(-180.000000) translate(-616.000000, -4259.000000) translate(610.000000, 4256.000000)">
                <polyline id="chevron_dropdown_" points="0 0 6 6 12 0"></polyline>
            </g>
        </g>
    </g>
</svg>