<?xml version="1.0" encoding="UTF-8"?>
<svg width="47px" height="36px" viewBox="0 0 47 36" version="1.1" xmlns="http://www.w3.org/2000/svg" xmlns:xlink="http://www.w3.org/1999/xlink">
    <!-- Generator: Sketch 62 (91390) - https://sketch.com -->
    <title>servicos_menu_icon_active2@1,5x</title>
    <desc>Created with Sketch.</desc>
    <g id="Page-1" stroke="none" stroke-width="1" fill="none" fill-rule="evenodd">
        <g id="Serviços" transform="translate(-721.000000, -494.000000)" fill="#FFFFFF" fill-rule="nonzero">
            <g id="Group-14" transform="translate(130.000000, 447.000000)">
                <g id="servicos_menu_icon_active2" transform="translate(591.000000, 47.000000)">
                    <path d="M46.0199988,10.9199997 L20.2799995,10.9199997 C18.9876532,10.9199997 17.9399995,11.9676534 17.9399995,13.2599996 L17.9399995,17.1599995 L16.3799996,17.1599995 L16.3799996,11.6999997 C16.3799996,10.4076534 15.3323459,9.35999975 14.0399996,9.35999975 C12.7476533,9.35999975 11.6999997,10.4076534 11.6999997,11.6999997 L11.6999997,15.5999996 L9.99023974,15.5999996 L5.45999986,17.4119395 L5.45999986,21.8399994 L7.79999979,21.8399994 L7.79999979,24.9599993 L0.779999979,24.9599993 C0.349217886,24.9599993 0,25.3092172 0,25.7399993 L0,33.5399991 C0,33.9707812 0.349217886,34.3199991 0.779999979,34.3199991 C1.21118108,34.3214709 1.63513171,34.4308775 2.01317995,34.6382391 C3.19571609,35.2539451 4.60428371,35.2539451 5.78681985,34.6382391 C6.5529363,34.2144385 7.48316332,34.2144385 8.24927978,34.6382391 C9.43168601,35.2544757 10.8405135,35.2544757 12.0229197,34.6382391 C12.4026379,34.4315414 12.8276745,34.3222003 13.2599996,34.3199991 C13.6911935,34.3213714 14.1151683,34.4307842 14.4931796,34.6382391 C15.6757158,35.2539451 17.0842834,35.2539451 18.2668195,34.6382391 C18.6448308,34.4307842 19.0688056,34.3213714 19.5,34.3199991 C19.9307816,34.3199991 20.2799995,33.9707812 20.2799995,33.5399991 L20.2799995,25.7399993 C20.2799995,25.3092172 19.9307816,24.9599993 19.5,24.9599993 L12.4799997,24.9599993 L12.4799997,21.8399994 L35.0999991,21.8399994 C35.4358728,21.8400803 35.7340829,21.6251428 35.8402191,21.3064794 L37.222379,17.1599995 L39,17.1599995 L39,19.4999995 C39,19.9307816 39.3492169,20.2799995 39.7799989,20.2799995 C39.8638237,20.2800437 39.9470884,20.2663419 40.0264789,20.2394395 L44.7064788,18.6794395 C45.0248699,18.5733942 45.239744,18.2755862 45.2399988,17.9399995 L45.2399988,17.1599995 L46.0199988,17.1599995 C46.4507809,17.1599995 46.7999988,16.8107817 46.7999988,16.3799996 L46.7999988,11.6999997 C46.7999988,11.2692176 46.4507809,10.9199997 46.0199988,10.9199997 Z M13.2599996,11.6999997 C13.2599996,11.2692176 13.6092175,10.9199997 14.0399996,10.9199997 C14.4707817,10.9199997 14.8199996,11.2692176 14.8199996,11.6999997 L14.8199996,17.1599995 L13.2599996,17.1599995 L13.2599996,11.6999997 Z M7.01999981,18.4680595 L10.2897597,17.1599995 L11.6999997,17.1599995 L11.6999997,20.2799995 L7.01999981,20.2799995 L7.01999981,18.4680595 Z M18.7199995,32.8333191 C18.3359769,32.9157261 17.964035,33.0467839 17.6131795,33.2233191 C17.4571795,33.2958591 17.3113195,33.3582591 17.1599995,33.4112991 L17.1599995,31.1999992 L15.5999996,31.1999992 L15.5999996,33.4097391 C15.4486796,33.3566991 15.3035996,33.2942991 15.1468196,33.2217591 C14.7950375,33.0488755 14.4232981,32.9199849 14.0399996,32.8379991 L14.0399996,31.1999992 L12.4799997,31.1999992 L12.4799997,32.8379991 C12.0963819,32.9191405 11.7241494,33.0469727 11.3716197,33.2186391 C11.2156197,33.2896191 11.0713197,33.3520191 10.9215597,33.4042791 L10.9254597,31.1999992 L9.36545975,31.1999992 L9.36545975,33.4136391 C9.20945976,33.3605991 9.06671976,33.2966391 8.90915976,33.2240991 C8.55671446,33.0512091 8.184135,32.9228238 7.79999979,32.8418991 L7.79999979,31.1999992 L6.23999983,31.1999992 L6.23999983,32.8379991 C5.85697457,32.9194731 5.48529809,33.0472941 5.13317986,33.2186391 C4.97717987,33.2911791 4.83131987,33.3535791 4.67999988,33.4066191 L4.67999988,31.1999992 L3.11999992,31.1999992 L3.11999992,33.4097391 C2.96867992,33.3566991 2.82359993,33.2942991 2.66681993,33.2217591 C2.31563076,33.0463727 1.94377064,32.9158679 1.55999996,32.8333191 L1.55999996,29.6399992 L18.7199995,29.6399992 L18.7199995,32.8333191 Z M18.7199995,28.0799993 L1.55999996,28.0799993 L1.55999996,26.5199993 L18.7199995,26.5199993 L18.7199995,28.0799993 Z M9.35999975,24.9599993 L9.35999975,21.8399994 L10.9199997,21.8399994 L10.9199997,24.9599993 L9.35999975,24.9599993 Z M17.9399995,20.2799995 L13.2599996,20.2799995 L13.2599996,18.7199995 L17.9399995,18.7199995 L17.9399995,20.2799995 Z M31.1999992,17.1599995 L31.1999992,20.2799995 L19.4999995,20.2799995 L19.4999995,13.2599996 C19.4999995,12.8292176 19.8492174,12.4799997 20.2799995,12.4799997 L31.1999992,12.4799997 L31.1999992,15.5999996 L31.9799992,15.5999996 C32.4107812,15.5999996 32.7599991,15.9492175 32.7599991,16.3799996 C32.7599991,16.8107817 32.4107812,17.1599995 31.9799992,17.1599995 L31.1999992,17.1599995 Z M43.6799988,17.3776195 L40.5599989,18.4173595 L40.5599989,17.1599995 L43.6799988,17.1599995 L43.6799988,17.3776195 Z M45.2399988,15.5999996 L36.659999,15.5999996 C36.3241253,15.5999187 36.0259152,15.8148562 35.919779,16.1335196 L34.5376191,20.2799995 L32.7599991,20.2799995 L32.7599991,18.5866195 C33.6955915,18.256441 34.3212641,17.3721441 34.3212641,16.3799996 C34.3212641,15.387855 33.6955915,14.5035581 32.7599991,14.1733796 L32.7599991,12.4799997 L45.2399988,12.4799997 L45.2399988,15.5999996 Z" id="Shape"></path>
                    <rect id="Rectangle" x="28.0799993" y="14.0399996" width="1.55999996" height="1.55999996"></rect>
                    <rect id="Rectangle" x="28.0799993" y="17.1599995" width="1.55999996" height="1.55999996"></rect>
                    <polygon id="Path" points="21.0599994 18.7199995 22.6199994 18.7199995 22.6199994 15.5999996 26.5199993 15.5999996 26.5199993 14.0399996 21.0599994 14.0399996"></polygon>
                    <path d="M25.7797793,25.2189593 C26.210784,24.8735796 26.8237546,24.8735796 27.2547593,25.2189593 C28.2110136,25.9128172 29.5050849,25.9128172 30.4613392,25.2189593 C30.6671003,25.0443288 30.9302388,24.9520775 31.1999992,24.9599993 L31.1999992,23.3999994 C30.6225662,23.3918068 30.0586674,23.575019 29.5963192,23.9210394 C29.1643643,24.2662075 28.5509542,24.2662075 28.1189993,23.9210394 C27.1636326,23.2262188 25.869346,23.2262188 24.9139793,23.9210394 C24.4840721,24.2662168 23.8720267,24.2662168 23.4421194,23.9210394 C22.9803331,23.575083 22.4169449,23.3918584 21.8399994,23.3999994 L21.8399994,24.9599993 C22.1086944,24.9528529 22.370586,25.0450565 22.5755394,25.2189593 C23.5306616,25.9136476 24.8246571,25.9136476 25.7797793,25.2189593 Z" id="Path"></path>
                    <path d="M22.5802194,7.5410398 C22.1492147,7.8864195 21.5362441,7.8864195 21.1052394,7.5410398 C20.1489851,6.84718191 18.8549138,6.84718191 17.8986595,7.5410398 C17.6928984,7.71567031 17.42976,7.8079216 17.1599995,7.79999979 L17.1599995,9.35999975 C17.7374325,9.36819233 18.3013313,9.18498008 18.7636795,8.83895977 C19.1956344,8.49379167 19.8090445,8.49379167 20.2409995,8.83895977 C21.1963661,9.5337803 22.4906527,9.5337803 23.4460194,8.83895977 C23.8759267,8.49378233 24.4879721,8.49378233 24.9178793,8.83895977 C25.3796656,9.18491616 25.9430538,9.36814076 26.5199993,9.35999975 L26.5199993,7.79999979 C26.2513043,7.80714625 25.9894127,7.71494262 25.7844593,7.5410398 C24.8293371,6.84635149 23.5353416,6.84635149 22.5802194,7.5410398 L22.5802194,7.5410398 Z" id="Path"></path>
                    <path d="M4.67999988,7.01999981 C4.67999988,8.31234609 3.63234622,9.35999975 2.33999994,9.35999975 C1.90921784,9.35999975 1.55999996,9.70921764 1.55999996,10.1399997 C1.55999996,10.5707818 1.90921784,10.9199997 2.33999994,10.9199997 C3.63234622,10.9199997 4.67999988,11.9676534 4.67999988,13.2599996 C4.67999988,13.6907817 5.02921776,14.0399996 5.45999986,14.0399996 C5.89078195,14.0399996 6.23999983,13.6907817 6.23999983,13.2599996 C6.23999983,11.9676534 7.28765349,10.9199997 8.57999977,10.9199997 C9.01078187,10.9199997 9.35999975,10.5707818 9.35999975,10.1399997 C9.35999975,9.70921764 9.01078187,9.35999975 8.57999977,9.35999975 C7.28765349,9.35999975 6.23999983,8.31234609 6.23999983,7.01999981 C6.23999983,6.58921772 5.89078195,6.23999983 5.45999986,6.23999983 C5.02921776,6.23999983 4.67999988,6.58921772 4.67999988,7.01999981 Z M6.26417983,10.1399997 C5.95817677,10.3672226 5.68722268,10.6381766 5.45999986,10.9441797 C5.23277703,10.6381766 4.96182295,10.3672226 4.65581988,10.1399997 C4.96182295,9.91277691 5.23277703,9.64182282 5.45999986,9.33581975 C5.68722268,9.64182282 5.95817677,9.91277691 6.26417983,10.1399997 L6.26417983,10.1399997 Z" id="Shape"></path>
                    <path d="M12.4799997,0.779999979 C12.4799997,0.349217886 12.1307818,0 11.6999997,0 C11.2692176,0 10.9199997,0.349217886 10.9199997,0.779999979 C10.9199997,2.07234626 9.87234605,3.11999992 8.57999977,3.11999992 C8.14921768,3.11999992 7.79999979,3.4692178 7.79999979,3.8999999 C7.79999979,4.33078199 8.14921768,4.67999988 8.57999977,4.67999988 C9.87234605,4.67999988 10.9199997,5.72765353 10.9199997,7.01999981 C10.9199997,7.45078191 11.2692176,7.79999979 11.6999997,7.79999979 C12.1307818,7.79999979 12.4799997,7.45078191 12.4799997,7.01999981 C12.4799997,5.72765353 13.5276533,4.67999988 14.8199996,4.67999988 C15.2507817,4.67999988 15.5999996,4.33078199 15.5999996,3.8999999 C15.5999996,3.4692178 15.2507817,3.11999992 14.8199996,3.11999992 C13.5276533,3.11999992 12.4799997,2.07234626 12.4799997,0.779999979 Z M11.6999997,4.70417988 C11.4727769,4.39817681 11.2018228,4.12722272 10.8958197,3.8999999 C11.2018228,3.67277707 11.4727769,3.40182299 11.6999997,3.09581992 C11.9272225,3.40182299 12.1981766,3.67277707 12.5041797,3.8999999 C12.1981766,4.12722272 11.9272225,4.39817681 11.6999997,4.70417988 Z" id="Shape"></path>
                </g>
            </g>
        </g>
    </g>
</svg>