<?xml version="1.0" encoding="UTF-8"?>
<svg width="39px" height="39px" viewBox="0 0 39 39" version="1.1" xmlns="http://www.w3.org/2000/svg" xmlns:xlink="http://www.w3.org/1999/xlink">
    <!-- Generator: Sketch 62 (91390) - https://sketch.com -->
    <title>servicos_menu_icon_active7@1,5x</title>
    <desc>Created with Sketch.</desc>
    <g id="Page-1" stroke="none" stroke-width="1" fill="none" fill-rule="evenodd">
        <g id="Serviços" transform="translate(-1077.000000, -494.000000)" fill="#FFFFFF" fill-rule="nonzero">
            <g id="Group-14" transform="translate(130.000000, 447.000000)">
                <g id="servicos_menu_icon_active7" transform="translate(947.000000, 47.000000)">
                    <path d="M35.09415,17.53505 L36.39415,17.56495 C36.39805,17.39595 36.4,17.2263 36.4,17.056 L36.4,5.85 C36.4,5.49101491 36.1089851,5.2 35.75,5.2 C30.3677592,5.20360042 25.1053503,3.61089833 20.6284,0.62335 L19.86205,0.10985 C19.6430315,-0.0370391733 19.3569685,-0.0370391733 19.13795,0.10985 L18.37355,0.6227 C16.1444072,2.10523295 13.7100919,3.25318909 11.14815,4.03 C8.58694603,4.8047244 5.92581063,5.19893423 3.25,5.2 C2.89101491,5.2 2.6,5.49101491 2.6,5.85 L2.6,17.55 L3.9,17.55 L3.9,6.4922 C6.48476487,6.43306247 9.04959774,6.02395741 11.5245,5.27605 C14.209299,4.4611034 16.7599853,3.25660659 19.09505,1.70105 L19.5,1.43 L19.9069,1.70235 C24.4127844,4.71115861 29.6832065,6.37273728 35.1,6.4922 L35.1,17.056 C35.1,17.2159 35.1,17.37515 35.09415,17.53505 Z" id="Path"></path>
                    <path d="M24.79815,34.6372 L19.5,37.6051 L14.2025,34.6372 C12.3674829,33.6093489 10.7047828,32.3004194 9.27485,30.758 L8.32,31.642 C9.84208527,33.28383 11.612056,34.6769966 13.5655,35.7708 L19.1815,38.9168 C19.3784096,39.0277654 19.6189904,39.0277654 19.8159,38.9168 L25.4319,35.7708 C27.2531743,34.7521692 28.9155163,33.4724002 30.36605,31.9722 L29.43265,31.07 C28.0703661,32.4790744 26.5089441,33.6809095 24.79815,34.6372 Z" id="Path"></path>
                    <path d="M10.58525,30.2484 C11.8397934,31.5318908 13.2728357,32.6277982 14.84015,33.5023 L19.18215,35.9398 C19.3795954,36.0504874 19.6204046,36.0504874 19.81785,35.9398 L24.1592,33.50295 C25.4520035,32.7808925 26.6546605,31.908137 27.742,30.90295 L26.858,29.9494 C25.8460058,30.8851348 24.7267033,31.6976655 23.5235,32.37 L19.5,34.62745 L15.4752,32.37 C14.0164609,31.5559942 12.6826086,30.5360667 11.51475,29.34165 L10.58525,30.2484 Z" id="Path"></path>
                    <path d="M32.49285,17.53245 L33.79285,17.56755 C33.7976167,17.39725 33.8000041,17.2267333 33.8000041,17.056 L33.8000041,8.3395 C33.8011969,8.00079976 33.5421055,7.71794888 33.2046,7.6895 C28.4587613,7.28221351 23.8788023,5.74746371 19.8458,3.21295 C19.6343979,3.08012844 19.3656021,3.08012844 19.1542,3.21295 C15.1214339,5.74837964 10.5414596,7.28402597 5.7954,7.6921 C5.45789452,7.72054888 5.19880312,8.00339976 5.19999587,8.3421 L5.19999587,17.056 C5.19999587,17.2271667 5.20238333,17.3976833 5.20715,17.56755 L6.50715,17.53245 C6.50238333,17.37385 6.5,17.2150333 6.5,17.056 L6.5,8.931 C11.1061293,8.44544735 15.5466408,6.94166814 19.5,4.52855 C23.4533592,6.94166814 27.8938707,8.44544735 32.5,8.931 L32.5,17.056 C32.5,17.2154667 32.4976167,17.3742833 32.49285,17.53245 Z" id="Path"></path>
                    <rect id="Rectangle" x="18.85" y="6.5" width="1.3" height="1.3"></rect>
                    <rect id="Rectangle" x="7.8" y="9.75" width="1.3" height="1.3"></rect>
                    <rect id="Rectangle" x="29.9" y="9.75" width="1.3" height="1.3"></rect>
                    <rect id="Rectangle" x="7.8" y="14.95" width="1.3" height="1.3"></rect>
                    <rect id="Rectangle" x="18.85" y="31.2" width="1.3" height="1.3"></rect>
                    <path d="M35.75,18.8499926 L32.16265,18.8499926 L30.08265,16.25 L31.2,16.25 L31.2,14.95 L29.9,14.95 L29.9,16.02185 L27.93765,13.5694 C27.3222123,12.7969559 26.3876881,12.3478864 25.40005,12.3499926 L14.24995,12.3499926 C13.2632886,12.3489671 12.3300037,12.797901 11.71495,13.5694 L7.48735,18.8499926 L3.25,18.8499926 C1.45596545,18.852149 0.00214897562,20.3059655 0,22.1 L0,27.3 C0,27.6589851 0.291014913,27.95 0.65,27.95 L2.8275,27.95 C3.37610319,29.5080839 4.84815535,30.5504084 6.5,30.5504084 C8.15184465,30.5504084 9.62389681,29.5080839 10.1725,27.95 L27.5275,27.95 C28.0761032,29.5080839 29.5481554,30.5504084 31.2,30.5504084 C32.8518446,30.5504084 34.3238968,29.5080839 34.8725,27.95 L38.35,27.95 C38.7089851,27.95 39,27.6589851 39,27.3 L39,22.1 C38.997851,20.3059655 37.5440345,18.852149 35.75,18.8499926 Z M20.15,13.6499938 L25.40005,13.6499938 C25.9928527,13.6485029 26.5538147,13.9180902 26.923,14.3819 L30.498,18.85 L20.15,18.85 L20.15,13.6499938 Z M6.5,29.25 C5.06405965,29.25 3.9,28.0859403 3.9,26.65 C3.9,25.2140597 5.06405965,24.05 6.5,24.05 C7.93594035,24.05 9.1,25.2140597 9.1,26.65 C9.1,28.0859403 7.93594035,29.25 6.5,29.25 Z M18.85,26.65 L10.4,26.65 C10.4,24.4960895 8.65391052,22.75 6.5,22.75 C4.34608948,22.75 2.6,24.4960895 2.6,26.65 L1.3,26.65 L1.3,22.1 C1.3,21.0230447 2.17304474,20.15 3.25,20.15 L18.85,20.15 L18.85,26.65 Z M18.85,18.85 L9.152,18.85 L12.727,14.3819 C13.0963694,13.9183211 13.6572125,13.6487908 14.24995,13.6499959 L18.85,13.6499959 L18.85,18.85 Z M31.2,29.25 C29.7640597,29.25 28.6,28.0859403 28.6,26.65 C28.6,25.2140597 29.7640597,24.05 31.2,24.05 C32.6359403,24.05 33.8,25.2140597 33.8,26.65 C33.8,28.0859403 32.6359403,29.25 31.2,29.25 Z M37.7,26.65 L35.1,26.65 C35.0999999,24.4960895 33.3539105,22.7500001 31.2,22.7500001 C29.0460895,22.7500001 27.3000001,24.4960895 27.3,26.65 L20.15,26.65 L20.15,20.15 L35.75,20.15 C36.8269553,20.15 37.7,21.0230447 37.7,22.1 L37.7,26.65 Z" id="Shape"></path>
                    <circle id="Oval" cx="6.5" cy="26.65" r="1.3"></circle>
                    <circle id="Oval" cx="31.2" cy="26.65" r="1.3"></circle>
                    <rect id="Rectangle" x="14.95" y="21.45" width="2.6" height="1.3"></rect>
                    <rect id="Rectangle" x="25.35" y="21.45" width="2.6" height="1.3"></rect>
                    <rect id="Rectangle" x="13.65" y="8.45" width="1.3" height="1.3"></rect>
                    <rect id="Rectangle" x="24.05" y="8.45" width="1.3" height="1.3"></rect>
                    <rect id="Rectangle" x="14.3" y="29.25" width="1.3" height="1.3"></rect>
                    <rect id="Rectangle" x="23.4" y="29.25" width="1.3" height="1.3"></rect>
                </g>
            </g>
        </g>
    </g>
</svg>