<?xml version="1.0" encoding="UTF-8"?>
<svg width="39px" height="39px" viewBox="0 0 39 39" version="1.1" xmlns="http://www.w3.org/2000/svg" xmlns:xlink="http://www.w3.org/1999/xlink">
    <!-- Generator: Sketch 62 (91390) - https://sketch.com -->
    <title>servicos_menu_icon_active6@1,5x</title>
    <desc>Created with Sketch.</desc>
    <g id="Page-1" stroke="none" stroke-width="1" fill="none" fill-rule="evenodd">
        <g id="Serviços" transform="translate(-272.000000, -490.000000)" fill="#FFFFFF" fill-rule="nonzero">
            <g id="Group-14" transform="translate(130.000000, 447.000000)">
                <g id="servicos_menu_icon_active6" transform="translate(142.000000, 43.000000)">
                    <path d="M38.35,11.05 L34.5083984,11.05 L33.917749,8.31289063 C33.853003,8.01264653 33.5870361,7.79904783 33.2801269,7.8 L28.3003906,7.8 L27.1952637,6.11596684 C27.0749756,5.93315434 26.8708984,5.82333984 26.6519043,5.82333984 L20.5080078,5.82333984 C20.2017334,5.82333984 19.9370361,6.03693846 19.8726075,6.33623047 L18.8550781,11.05 L17.55,11.05 C17.19104,11.05 16.9,11.34104 16.9,11.7 L16.9,14.2733398 L16.9,14.2869873 L16.9,14.3012695 L16.9,15.6012695 C16.9,15.7072753 16.9263428,15.8116944 16.9761719,15.9056397 L17.5909424,17.0625 L17.5909424,17.55 L18.8909424,17.55 L18.8909424,16.9 C18.8909424,16.7936767 18.864917,16.6889405 18.8147705,16.5953125 L18.2,15.4375 L18.2,14.95 L26.0453858,14.9252441 L35.1,14.9252441 L35.1,15.4454346 L34.6845459,16.25 L20.15,16.25 L20.15,17.55 L34.4325439,17.55 L34.45,30.5233398 L18.9052247,30.5233398 L18.85,24.0442872 L17.55,24.0557128 L17.6052247,30.5246094 L15.6,30.5246094 C15.24104,30.5246094 14.95,30.8156494 14.95,31.1746094 L14.95,35.1 C14.95,35.45896 15.24104,35.75 15.6,35.75 L15.8281983,35.75 C15.6799805,36.0537353 15.6019043,36.3869873 15.6,36.725 C15.6,37.9815186 16.6184814,39 17.875,39 C19.1315186,39 20.15,37.9815186 20.15,36.725 C20.1480957,36.3869873 20.0700195,36.0537353 19.9218017,35.75 L33.3769287,35.75 C33.2290283,36.0537353 33.1515869,36.3869873 33.15,36.725 C33.15,37.9815186 34.1684814,39 35.425,39 C36.6815186,39 37.7,37.9815186 37.7,36.725 C37.6980957,36.3869873 37.6200195,36.0537353 37.4718017,35.75 L37.7,35.75 C38.05896,35.75 38.35,35.45896 38.35,35.1 L38.35,31.1746094 C38.35,30.8156494 38.05896,30.5246094 37.7,30.5246094 L35.75,30.5246094 L35.735083,19.5 L37.05,19.5 C37.2975586,19.5012695 37.5244873,19.3619385 37.6349365,19.1407227 L38.9349365,16.5407227 C38.9787353,16.4499512 39.0009522,16.3506103 39.0000294,16.25 L39.0000294,11.7 C39.0000294,11.34104 38.70896,11.05 38.35,11.05 Z M21.0326416,7.12333984 L26.297705,7.12333984 L27.402832,8.80737309 C27.5237549,8.99145504 27.7297363,9.10158689 27.95,9.1 L32.7599365,9.1 L33.1747559,11.0233398 L20.1909424,11.0233398 L21.0326416,7.12333984 Z M26.0377686,13.6233398 L18.2,13.6233398 L18.2,12.35 L35.1,12.35 L35.1,13.5947754 L26.0377686,13.6233398 Z M17.875,37.7 C17.3364014,37.7 16.9,37.2635986 16.9,36.725 C16.9,36.1864014 17.3364014,35.75 17.875,35.75 C18.4135986,35.75 18.85,36.1864014 18.85,36.725 C18.85,37.2635986 18.4135986,37.7 17.875,37.7 Z M35.425,37.7 C34.8864014,37.7 34.45,37.2635986 34.45,36.725 C34.45,36.1864014 34.8864014,35.75 35.425,35.75 C35.9635986,35.75 36.4,36.1864014 36.4,36.725 C36.4,37.2635986 35.9635986,37.7 35.425,37.7 Z M37.05,31.8246094 L37.05,34.45 L16.25,34.45 L16.25,31.8246094 L18.0051269,31.8246094 C18.0860596,31.8598389 18.1733398,31.878247 18.2618897,31.8785644 L34.1646728,31.8246094 L37.05,31.8246094 Z M37.7,16.0947998 L36.6481934,18.2 L35.7331787,18.2 L35.7331787,17.0567871 L36.3298584,15.8970703 C36.3761963,15.8050293 36.4003174,15.7031494 36.4,15.6 L36.4,12.35 L37.7,12.35 L37.7,16.0947998 Z" id="Shape"></path>
                    <polygon id="Path" points="20.15 27.3 33.15 27.3 33.15 28.6 20.15 28.6"></polygon>
                    <polygon id="Path" points="20.15 24.05 33.15 24.05 33.15 25.35 20.15 25.35"></polygon>
                    <polygon id="Path" points="22.75 8.45 24.05 8.45 24.05 9.75 22.75 9.75"></polygon>
                    <path d="M21.45,22.75 C22.5268799,22.75 23.4,21.8768799 23.4,20.8 C23.4,19.7231201 22.5268799,18.85 21.45,18.85 L15.6,18.85 L15.6,3.25 C15.5977783,1.45583498 14.144165,0.00222168375 12.35,0 L7.15,0 C5.35583498,0.00222168375 3.9022217,1.45583498 3.9,3.25 L3.9,33.8 L0.65,33.8 C0.291040019,33.8 0,34.09104 0,34.45 L0,38.35 C0,38.70896 0.291040019,39 0.65,39 L11.05,39 C11.40896,39 11.7,38.70896 11.7,38.35 L11.7,34.45 C11.7,34.09104 11.40896,33.8 11.05,33.8 L7.8,33.8 L7.8,3.9 L11.7,3.9 L11.7,19.5 C11.7022217,21.294165 13.155835,22.7477783 14.95,22.75 L21.45,22.75 Z M10.4,35.1 L10.4,37.7 L1.3,37.7 L1.3,35.1 L4.55,35.1 C4.90895998,35.1 5.2,34.80896 5.2,34.45 L5.2,32.5 L6.5,32.5 L6.5,34.45 C6.5,34.80896 6.79104002,35.1 7.15,35.1 L10.4,35.1 Z M9.1,2.6 L7.8,2.6 C7.08208004,2.6 6.5,3.18208004 6.5,3.9 L6.5,31.2 L5.2,31.2 L5.2,3.25 C5.2,2.17312014 6.07312014,1.3 7.15,1.3 L9.1,1.3 L9.1,2.6 Z M13,19.5 L13,3.9 C13,3.18208004 12.41792,2.6 11.7,2.6 L10.4,2.6 L10.4,1.3 L12.35,1.3 C13.4268799,1.3 14.3,2.17312014 14.3,3.25 L14.3,18.85 C14.3,19.56792 14.88208,20.15 15.6,20.15 L21.45,20.15 C21.80896,20.15 22.1,20.44104 22.1,20.8 C22.1,21.15896 21.80896,21.45 21.45,21.45 L14.95,21.45 C13.8731201,21.45 13,20.5768799 13,19.5 Z" id="Shape"></path>
                </g>
            </g>
        </g>
    </g>
</svg>