<?xml version="1.0" encoding="UTF-8"?>
<svg width="20px" height="18px" viewBox="0 0 20 18" version="1.1" xmlns="http://www.w3.org/2000/svg" xmlns:xlink="http://www.w3.org/1999/xlink">
    <!-- Generator: Sketch 62 (91390) - https://sketch.com -->
    <title>iconfinder_Twitter_1298770@1,5x</title>
    <desc>Created with Sketch.</desc>
    <g id="Page-1" stroke="none" stroke-width="1" fill="none" fill-rule="evenodd">
        <g id="home" transform="translate(-711.000000, -4944.000000)">
            <g id="footer" transform="translate(120.000000, 4773.000000)">
                <g id="Group-13" transform="translate(527.000000, 170.000000)">
                    <g id="iconfinder_Twitter_1298770" transform="translate(64.000000, 0.000000)">
                        <rect id="Rectangle" x="0" y="0" width="20" height="20"></rect>
                        <path d="M20,3.6396875 C19.2651562,3.974375 18.4739062,4.200625 17.6439062,4.30171875 C18.4914062,3.78171875 19.141875,2.95703125 19.4482812,1.97484375 C18.6546875,2.45640625 17.7778125,2.80671875 16.8409375,2.99453125 C16.094375,2.1771875 15.0271875,1.66671875 13.84625,1.66671875 C11.5817188,1.66671875 9.74453125,3.550625 9.74453125,5.8740625 C9.74453125,6.20390625 9.7796875,6.5240625 9.85015625,6.83234375 C6.44015625,6.65640625 3.41734375,4.983125 1.3921875,2.4346875 C1.03890625,3.05828125 0.836875,3.78171875 0.836875,4.5521875 C0.836875,6.01125 1.56125,7.29921875 2.66234375,8.0540625 C1.9909375,8.03359375 1.356875,7.8421875 0.8028125,7.52921875 L0.8028125,7.5809375 C0.8028125,9.62015625 2.21734375,11.3210938 4.095625,11.7064063 C3.75171875,11.8051563 3.38890625,11.8545312 3.014375,11.8545312 C2.7503125,11.8545312 2.49203125,11.8292187 2.241875,11.7798438 C2.76421875,13.4507813 4.27859375,14.6678125 6.0746875,14.7003125 C4.670625,15.8295313 2.90046875,16.5023438 0.97875,16.5023438 C0.64765625,16.5023438 0.32015625,16.483125 -0.0003125,16.4445313 C1.81578125,17.63625 3.9734375,18.3332813 6.28953125,18.3332813 C13.8378125,18.3332813 17.9640625,11.9229688 17.9640625,6.36265625 C17.9640625,6.1796875 17.9604687,5.99671875 17.9534375,5.81734375 C18.755625,5.22390625 19.4517187,4.48359375 20,3.6396875" id="Twitter_1_" fill="#000000"></path>
                    </g>
                </g>
            </g>
        </g>
    </g>
</svg>