<?xml version="1.0" encoding="UTF-8"?>
<svg width="15px" height="16px" viewBox="0 0 15 16" version="1.1" xmlns="http://www.w3.org/2000/svg" xmlns:xlink="http://www.w3.org/1999/xlink">
    <!-- Generator: Sketch 62 (91390) - https://sketch.com -->
    <title>user_form@1,5x</title>
    <desc>Created with Sketch.</desc>
    <g id="Page-1" stroke="none" stroke-width="1" fill="none" fill-rule="evenodd" stroke-linecap="round" stroke-linejoin="round">
        <g id="contact" transform="translate(-828.000000, -205.000000)" stroke="#FFFFFF" stroke-width="0.799999952">
            <g id="user_form" transform="translate(829.000000, 206.000000)">
                <path d="M12.7999992,14.3999991 L12.7999992,12.7999992 C12.7999992,11.0326881 11.3673105,9.59999943 9.59999943,9.59999943 L3.19999981,9.59999943 C1.43268872,9.59999943 0,11.0326881 0,12.7999992 L0,14.3999991" id="Path"></path>
                <circle id="Oval" cx="6.39999962" cy="3.19999981" r="3.19999981"></circle>
            </g>
        </g>
    </g>
</svg>