<?xml version="1.0" encoding="UTF-8"?>
<svg width="100px" height="27px" viewBox="0 0 100 27" version="1.1" xmlns="http://www.w3.org/2000/svg" xmlns:xlink="http://www.w3.org/1999/xlink">
    <!-- Generator: Sketch 62 (91390) - https://sketch.com -->
    <title>mma_logo@1,5x</title>
    <desc>Created with Sketch.</desc>
    <g id="Page-1" stroke="none" stroke-width="1" fill="none" fill-rule="evenodd">
        <g id="home" transform="translate(-120.000000, -21.000000)" fill="#000000" fill-rule="nonzero">
            <g id="menu">
                <g id="mma_logo" transform="translate(120.000000, 21.000000)">
                    <path d="M90.4021593,8.22584405e-14 L99.7660756,16.5126249 C99.8981625,16.745551 99.9670699,17.0090328 99.9659953,17.2769034 C99.9436002,22.6554743 95.6707659,27.0089812 90.4021593,27.0089812 C85.1335527,27.0089812 80.8607186,22.6554743 80.8383233,17.2768786 C80.8372487,17.0090328 80.9061561,16.745551 81.0382429,16.5126249 L90.4021593,8.22584405e-14 Z M90.4021593,24.0293756 C93.8775403,24.0293756 96.7474509,21.2516495 96.9589511,17.7106859 L90.4021593,6.14823307 L83.8453677,17.7106859 C84.0568677,21.2516495 86.9267784,24.0293756 90.4021593,24.0293756 Z" id="Path-Copy-4"></path>
                    <polygon id="Path-Copy-2" points="43.787996 17.7108073 40.3806407 17.7108073 50.5062956 3.21942517e-13 58.4930878 13.9619161 66.4798798 3.21942517e-13 76.5992417 17.7108073 73.191876 17.7108073 66.4798798 5.95650303 59.7559331 17.7108073 57.2302423 17.7108073 50.5062956 5.95650303"></polygon>
                    <polygon id="Path-Copy-6" points="3.40735527 17.7108073 4.82204651e-14 17.7108073 10.125655 3.21942517e-13 18.1124471 13.9619161 26.0992393 3.21942517e-13 36.218601 17.7108073 32.8112353 17.7108073 26.0992393 5.95650303 19.3752925 17.7108073 16.8496017 17.7108073 10.125655 5.95650303"></polygon>
                </g>
            </g>
        </g>
    </g>
</svg>