<?xml version="1.0" encoding="UTF-8"?>
<svg width="39px" height="39px" viewBox="0 0 39 39" version="1.1" xmlns="http://www.w3.org/2000/svg" xmlns:xlink="http://www.w3.org/1999/xlink">
    <!-- Generator: Sketch 62 (91390) - https://sketch.com -->
    <title>servicos_menu_icon_active4@1,5x</title>
    <desc>Created with Sketch.</desc>
    <g id="Page-1" stroke="none" stroke-width="1" fill="none" fill-rule="evenodd">
        <g id="Serviços" transform="translate(-577.000000, -490.000000)" fill="#FFFFFF" fill-rule="nonzero">
            <g id="Group-14" transform="translate(130.000000, 447.000000)">
                <g id="servicos_menu_icon_active4" transform="translate(447.000000, 43.000000)">
                    <path d="M28.1598688,6.61765 L21.9374188,2.26135 L21.9374188,0 L20.6374188,0 L20.6374188,1.95 L18.0374188,1.95 L18.0374188,0 L16.7374188,0 L16.7374188,2.26135 L10.5149688,6.61635 C10.220275,6.82134375 10.147475,7.226375 10.3523875,7.52106875 C10.4741813,7.6961625 10.6740563,7.80040625 10.8874188,7.80000118 L27.7874188,7.80000118 C28.1463813,7.79975625 28.437175,7.508475 28.4369314,7.1495125 C28.4369314,6.93769375 28.3333375,6.7392 28.1598688,6.61765 Z M12.9492188,6.5 L17.5921688,3.25 L21.0826688,3.25 L25.7256188,6.5 L12.9492188,6.5 Z" id="Shape"></path>
                    <path d="M8.28741875,25.35 L6.98741875,25.35 C5.91045,25.35 5.03741875,26.2230313 5.03741875,27.3 L5.03741875,27.95 C5.03741875,29.0269688 5.91045,29.9 6.98741875,29.9 L8.28741875,29.9 C9.3643875,29.9 10.2374187,29.0269688 10.2374187,27.95 L10.2374187,27.3 C10.2374187,26.2230313 9.3643875,25.35 8.28741875,25.35 Z M8.93741875,27.95 C8.93741875,28.3089625 8.64638125,28.6 8.28741875,28.6 L6.98741875,28.6 C6.62845625,28.6 6.33741875,28.3089625 6.33741875,27.95 L6.33741875,27.3 C6.33741875,26.9410375 6.62845625,26.65 6.98741875,26.65 L8.28741875,26.65 C8.64638125,26.65 8.93741875,26.9410375 8.93741875,27.3 L8.93741875,27.95 Z" id="Shape"></path>
                    <path d="M31.6874187,25.35 L30.3874187,25.35 C29.31045,25.35 28.4374187,26.2230313 28.4374187,27.3 L28.4374187,27.95 C28.4374187,29.0269688 29.31045,29.9 30.3874187,29.9 L31.6874187,29.9 C32.7643875,29.9 33.6374188,29.0269688 33.6374188,27.95 L33.6374188,27.3 C33.6374188,26.2230313 32.7643875,25.35 31.6874187,25.35 Z M32.3374187,27.95 C32.3374187,28.3089625 32.0463812,28.6 31.6874187,28.6 L30.3874187,28.6 C30.0284562,28.6 29.7374187,28.3089625 29.7374187,27.95 L29.7374187,27.3 C29.7374187,26.9410375 30.0284562,26.65 30.3874187,26.65 L31.6874187,26.65 C32.0463812,26.65 32.3374187,26.9410375 32.3374187,27.3 L32.3374187,27.95 Z" id="Shape"></path>
                    <path d="M25.1874187,25.35 L13.4874187,25.35 C12.41045,25.35 11.5374188,26.2230313 11.5374188,27.3 L11.5374188,27.95 C11.5374188,29.0269688 12.41045,29.9 13.4874187,29.9 L25.1874187,29.9 C26.2643875,29.9 27.1374188,29.0269688 27.1374188,27.95 L27.1374188,27.3 C27.1374188,26.2230313 26.2643875,25.35 25.1874187,25.35 Z M25.8374188,27.95 C25.8374188,28.3089625 25.5463812,28.6 25.1874187,28.6 L13.4874187,28.6 C13.1284562,28.6 12.8374188,28.3089625 12.8374188,27.95 L12.8374188,27.3 C12.8374188,26.9410375 13.1284562,26.65 13.4874187,26.65 L25.1874187,26.65 C25.5463812,26.65 25.8374188,26.9410375 25.8374188,27.3 L25.8374188,27.95 Z" id="Shape"></path>
                    <path d="M34.1938187,23.44225 L32.7527688,22.8657 L28.4419688,16.93835 C27.8291813,16.0987125 26.8528,15.601625 25.8133688,15.6 L12.8614688,15.6 C11.8220375,15.601625 10.8456563,16.0987125 10.2328688,16.93835 L5.92206875,22.8657 L4.48101875,23.44225 C3.2439875,23.9322687 2.43319375,25.12965 2.43740232,26.4602 L2.43740232,37.7 C2.43740232,38.4180062 3.0194125,39 3.73741875,39 L7.63741875,39 C8.355425,39 8.93741875,38.4180062 8.93741875,37.7 L8.93741875,35.1 L29.7374187,35.1 L29.7374187,37.7 C29.7374187,38.4180062 30.3194125,39 31.0374187,39 L34.9374188,39 C35.655425,39 36.2374352,38.4180062 36.2374352,37.7 L36.2374352,26.4602 C36.2416438,25.12965 35.43085,23.9322687 34.1938187,23.44225 Z M11.2839188,17.7034 C11.651575,17.1994063 12.2376313,16.900975 12.8614688,16.9 L25.8133687,16.9 C26.4372062,16.900975 27.0232625,17.1994063 27.3909188,17.7034 L31.0608187,22.75 L7.61401875,22.75 L11.2839188,17.7034 Z M7.63741875,37.7 L3.73741875,37.7 L3.73741875,34.98885 C3.79201875,35.00835 3.85116875,35.01875 3.90836875,35.03305 C3.94606875,35.0428 3.98246875,35.0558 4.02146875,35.06295 C4.1419625,35.0868375 4.26456875,35.0992688 4.38741875,35.1 L7.63741875,35.1 L7.63741875,37.7 Z M34.9374188,37.7 L31.0374188,37.7 L31.0374188,35.1 L34.2874188,35.1 C34.4102688,35.0992688 34.532875,35.0868375 34.6533688,35.06295 C34.6923688,35.0558 34.7287688,35.0428 34.7671188,35.03305 C34.8236688,35.01875 34.8828188,35.00835 34.9374188,34.98885 L34.9374188,37.7 Z M34.9374188,33.15 C34.9374188,33.5089625 34.6463813,33.8 34.2874188,33.8 L8.28741875,33.8 L4.38741875,33.8 C4.02845625,33.8 3.73741875,33.5089625 3.73741875,33.15 L3.73741875,32.5 L34.9374188,32.5 L34.9374188,33.15 Z M34.9374305,31.2 L3.73740705,31.2 L3.73740705,26.4602 C3.73465625,25.662 4.2211,24.9436688 4.96331875,24.64995 L6.46221875,24.05 L32.2126188,24.05 L33.7115188,24.64995 C34.4537375,24.9436688 34.9401813,25.662 34.9374305,26.4602 L34.9374305,31.2 Z" id="Shape"></path>
                    <rect id="Rectangle" x="18.6874187" y="9.1" width="1.3" height="1.95"></rect>
                    <rect id="Rectangle" x="18.6874187" y="12.35" width="1.3" height="1.95"></rect>
                    <rect id="Rectangle" transform="translate(12.220181, 9.853908) rotate(-50.677134) translate(-12.220181, -9.853908) " x="11.2451656" y="9.20389745" width="1.95003183" height="1.30002122"></rect>
                    <rect id="Rectangle" transform="translate(10.161265, 12.368850) rotate(-50.669071) translate(-10.161265, -12.368850) " x="9.18626314" y="11.718848" width="1.95000457" height="1.30000305"></rect>
                    <rect id="Rectangle" transform="translate(8.101582, 14.882630) rotate(-50.669071) translate(-8.101582, -14.882630) " x="7.12657992" y="14.2326285" width="1.95000457" height="1.30000305"></rect>
                    <rect id="Rectangle" transform="translate(6.040960, 17.399344) rotate(-50.669071) translate(-6.040960, -17.399344) " x="5.06595748" y="16.749342" width="1.95000457" height="1.30000305"></rect>
                    <rect id="Rectangle" transform="translate(15.814407, 10.038729) rotate(-73.721690) translate(-15.814407, -10.038729) " x="14.8394187" y="9.3887367" width="1.9499767" height="1.29998446"></rect>
                    <rect id="Rectangle" transform="translate(14.902797, 13.153837) rotate(-73.698084) translate(-14.902797, -13.153837) " x="13.9277924" y="12.5038338" width="1.95000832" height="1.30000554"></rect>
                    <rect id="Rectangle" transform="translate(8.370515, 9.627208) rotate(-42.686073) translate(-8.370515, -9.627208) " x="7.39548815" y="8.97751477" width="1.95005461" height="1.29938639"></rect>
                    <rect id="Rectangle" transform="translate(5.980834, 11.832769) rotate(-42.686073) translate(-5.980834, -11.832769) " x="5.00580668" y="11.183076" width="1.95005461" height="1.29938639"></rect>
                    <rect id="Rectangle" transform="translate(3.593338, 14.034819) rotate(-42.686073) translate(-3.593338, -14.034819) " x="2.61831032" y="13.3851259" width="1.95005461" height="1.29938639"></rect>
                    <rect id="Rectangle" transform="translate(1.205049, 16.238341) rotate(-42.686073) translate(-1.205049, -16.238341) " x="0.230022012" y="15.5886474" width="1.95005461" height="1.29938639"></rect>
                    <rect id="Rectangle" transform="translate(26.456057, 9.990103) rotate(-39.306741) translate(-26.456057, -9.990103) " x="25.8063531" y="9.01506002" width="1.29940762" height="1.95008647"></rect>
                    <rect id="Rectangle" transform="translate(28.512128, 12.500367) rotate(-39.322866) translate(-28.512128, -12.500367) " x="27.8621177" y="11.5253509" width="1.30002122" height="1.95003183"></rect>
                    <rect id="Rectangle" transform="translate(30.573255, 15.016326) rotate(-39.326497) translate(-30.573255, -15.016326) " x="29.9232945" y="14.0413855" width="1.29992066" height="1.94988099"></rect>
                    <rect id="Rectangle" transform="translate(32.628110, 17.533417) rotate(-39.326497) translate(-32.628110, -17.533417) " x="31.9781499" y="16.5584766" width="1.29992066" height="1.94988099"></rect>
                    <rect id="Rectangle" transform="translate(22.859928, 10.179863) rotate(-16.260205) translate(-22.859928, -10.179863) " x="22.209928" y="9.20486287" width="1.3" height="1.95"></rect>
                    <rect id="Rectangle" transform="translate(23.770779, 13.290050) rotate(-16.296417) translate(-23.770779, -13.290050) " x="23.1207941" y="12.3150729" width="1.29996906" height="1.94995359"></rect>
                    <rect id="Rectangle" transform="translate(30.302804, 9.761108) rotate(-47.310042) translate(-30.302804, -9.761108) " x="29.6531582" y="8.78615238" width="1.29929088" height="1.94991127"></rect>
                    <rect id="Rectangle" transform="translate(32.692749, 11.966539) rotate(-47.301946) translate(-32.692749, -11.966539) " x="32.0431068" y="10.9915893" width="1.29928348" height="1.94990018"></rect>
                    <rect id="Rectangle" transform="translate(35.078926, 14.171191) rotate(-47.301946) translate(-35.078926, -14.171191) " x="34.4292844" y="13.196241" width="1.29928348" height="1.94990018"></rect>
                    <rect id="Rectangle" transform="translate(37.468675, 16.372453) rotate(-47.310042) translate(-37.468675, -16.372453) " x="36.81903" y="15.3974975" width="1.29929088" height="1.94991127"></rect>
                </g>
            </g>
        </g>
    </g>
</svg>