<?xml version="1.0" encoding="UTF-8"?>
<svg width="39px" height="39px" viewBox="0 0 39 39" version="1.1" xmlns="http://www.w3.org/2000/svg" xmlns:xlink="http://www.w3.org/1999/xlink">
    <!-- Generator: Sketch 62 (91390) - https://sketch.com -->
    <title>servicos_menu_icon_active1@1,5x</title>
    <desc>Created with Sketch.</desc>
    <g id="Page-1" stroke="none" stroke-width="1" fill="none" fill-rule="evenodd">
        <g id="Serviços" transform="translate(-902.000000, -490.000000)" fill="#FFFFFF" fill-rule="nonzero">
            <g id="Group-14" transform="translate(130.000000, 447.000000)">
                <g id="servicos_menu_icon_active1" transform="translate(772.000000, 43.000000)">
                    <path d="M24.3199989,28.7999987 L1.27999994,28.7999987 L1.27999994,21.759999 C1.27999994,20.6995991 2.1395999,19.8399991 3.19999986,19.8399991 L14.0799994,19.8399991 L14.0799994,18.5599992 L4.87551978,18.5599992 L9.0015996,10.3071995 C9.21751959,9.87271956 9.66135957,9.59855957 10.1465595,9.59999957 L23.6799989,9.59999957 L23.6799989,8.31998501 L10.1465595,8.31998501 C9.17591959,8.31671963 8.28791963,8.8655196 7.85663965,9.73503956 L3.44447985,18.5599992 L3.19999986,18.5599992 C1.43359994,18.5620792 0.00207999991,19.9935991 0,21.759999 L0,36.4799984 C0,37.5403983 0.859599962,38.3999983 1.91999991,38.3999983 L7.03999969,38.3999983 C8.10039964,38.3999983 8.9599996,37.5403983 8.9599996,36.4799984 L8.9599996,32.6399985 L24.3199989,32.6399985 L24.3199989,31.3599986 L3.19999986,31.3599986 C3.08159986,31.3591986 2.96351987,31.3471986 2.84735987,31.3241586 C2.81215987,31.3177586 2.77759988,31.3075186 2.74239988,31.2991986 C2.66399988,31.2797586 2.58687988,31.2555986 2.51135989,31.2268786 C2.47551989,31.2127986 2.43967989,31.1987186 2.40511989,31.1827186 C2.3303199,31.1481586 2.2578399,31.1087986 2.1881599,31.0649586 C2.1619199,31.0483186 2.1337599,31.0335986 2.10815991,31.0163186 C2.01695991,30.9527186 1.93127991,30.8813586 1.85215992,30.8031986 C1.83871992,30.7897586 1.82719992,30.7737586 1.81375992,30.7596786 C1.75007992,30.6923186 1.69103992,30.6207186 1.63711993,30.5452786 C1.61599993,30.5151986 1.59679993,30.4812786 1.57759993,30.4524786 C1.53607993,30.3858386 1.49839993,30.3167986 1.46495993,30.2457586 C1.44959994,30.2118386 1.43295994,30.1772787 1.41951994,30.1420787 C1.41119994,30.1222387 1.40735994,30.1004787 1.39967994,30.0780787 L24.3199989,30.0780787 L24.3199989,28.7999987 Z M6.39999971,32.6399985 L7.67999966,32.6399985 L7.67999966,36.4799984 C7.67999966,36.8334384 7.39343967,37.1199983 7.03999969,37.1199983 L6.39999971,37.1199983 L6.39999971,32.6399985 Z M3.83999983,32.6399985 L5.11999977,32.6399985 L5.11999977,37.1199983 L3.83999983,37.1199983 L3.83999983,32.6399985 Z M1.52319993,32.1542386 C1.63047993,32.2211186 1.74159992,32.2815986 1.85599992,32.3353586 C1.91999991,32.3647986 1.98399991,32.3923186 2.04799991,32.4179186 C2.1719999,32.4648785 2.2987199,32.5041585 2.42751989,32.5356785 C2.47295989,32.5471985 2.51455989,32.5670385 2.56127989,32.5766385 L2.56127989,37.1199983 L1.91999991,37.1199983 C1.56655993,37.1199983 1.27999994,36.8334384 1.27999994,36.4799984 L1.27999994,31.9999986 C1.30431994,32.0179186 1.33311994,32.0313586 1.35807994,32.0492786 C1.41119994,32.0870386 1.46751993,32.1196786 1.52319993,32.1542386 Z" id="Shape"></path>
                    <path d="M13.4399994,22.399999 L24.3199989,22.399999 L24.3199989,21.1199991 L13.4399994,21.1199991 C12.3795994,21.1199991 11.5199995,21.979599 11.5199995,23.039999 L11.5199995,25.5999989 C11.5199995,26.6603988 12.3795994,27.5199988 13.4399994,27.5199988 L24.3199989,27.5199988 L24.3199989,26.2399988 L13.4399994,26.2399988 C13.0865594,26.2399988 12.7999994,25.9534388 12.7999994,25.5999989 L12.7999994,24.9599989 L24.3199989,24.9599989 L24.3199989,23.6799989 L12.7999994,23.6799989 L12.7999994,23.039999 C12.7999994,22.686559 13.0865594,22.399999 13.4399994,22.399999 Z" id="Path"></path>
                    <path d="M8.31999963,21.1199991 L4.4799998,21.1199991 C3.41959985,21.1199991 2.55999989,21.979599 2.55999989,23.039999 L2.55999989,25.5999989 C2.55999989,26.6603988 3.41959985,27.5199988 4.4799998,27.5199988 L8.31999963,27.5199988 C9.38039958,27.5199988 10.2399995,26.6603988 10.2399995,25.5999989 L10.2399995,23.039999 C10.2399995,21.979599 9.38039958,21.1199991 8.31999963,21.1199991 Z M8.9599996,25.5999989 C8.9599996,25.9534388 8.67343961,26.2399988 8.31999963,26.2399988 L4.4799998,26.2399988 C4.12655982,26.2399988 3.83999983,25.9534388 3.83999983,25.5999989 L3.83999983,23.039999 C3.83999983,22.686559 4.12655982,22.399999 4.4799998,22.399999 L8.31999963,22.399999 C8.67343961,22.399999 8.9599996,22.686559 8.9599996,23.039999 L8.9599996,25.5999989 Z" id="Shape"></path>
                    <path d="M38.4000083,17.9199992 L38.4000083,16 C38.4000083,15.6465593 38.1134383,15.3599993 37.7599983,15.3599993 L35.0214384,15.3599993 L34.5273585,13.8777594 C34.4402385,13.6163194 34.1955985,13.4399194 33.9199985,13.4399994 L31.9999986,13.4399994 L31.9999986,12.4249594 C33.9272785,11.6350395 35.1898384,9.76287956 35.1999984,7.67999966 L35.1999984,0.639999971 C35.1999984,0.286559987 34.9134384,0 34.5599985,0 L25.5999989,0 C25.2465589,0 24.9599989,0.286559987 24.9599989,0.639999971 L24.9599989,7.67999966 C24.9701589,9.76287956 26.2327188,11.6350395 28.1599987,12.4249594 L28.1599987,13.4399994 L24.3199989,13.4399994 L24.3199989,12.7999994 L23.039999,12.7999994 L23.039999,13.6844794 L20.8339191,14.7871993 C20.6169591,14.8955993 20.479999,15.1174393 20.479999,15.3599993 L20.479999,16.6399993 C20.479999,16.8825592 20.6169591,17.1043992 20.8339191,17.2127992 L23.039999,18.3155192 L23.039999,19.1999991 L24.3199989,19.1999991 L24.3199989,18.5599992 L27.9513588,18.5599992 L27.2563188,20.9919991 C27.1255988,21.445199 26.7116788,21.757999 26.2399988,21.759999 L26.2399988,23.039999 C27.2822388,23.036719 28.1974387,22.346479 28.4870387,21.345279 L28.5510387,21.1199991 L30.7071986,21.1199991 L31.8591986,26.8799988 L30.0799987,26.8799988 L30.0799987,28.1599987 L32.1151986,28.1599987 L32.6527985,30.8479986 C32.7135985,31.1459986 32.9758385,31.3600786 33.2799985,31.3599986 L34.5599985,31.3599986 L34.5599985,32.6399985 C34.5599985,32.9934385 34.2734385,33.2799985 33.9199985,33.2799985 L28.1599987,33.2799985 C26.7461588,33.2799985 25.5999989,34.4261585 25.5999989,35.8399984 C25.5999989,37.2538383 26.7461588,38.3999983 28.1599987,38.3999983 L38.4000083,38.3999983 L38.4000083,37.1199983 L28.1599987,37.1199983 C27.4530388,37.1199983 26.8799988,36.5469584 26.8799988,35.8399984 C26.8799988,35.1330384 27.4530388,34.5599985 28.1599987,34.5599985 L33.9199985,34.5599985 C34.9803984,34.5599985 35.8399984,33.7003985 35.8399984,32.6399985 L35.8399984,31.3599986 L37.1199983,31.3599986 C37.4734383,31.3599186 37.7599183,31.0732786 37.7598383,30.7198386 C37.7598383,30.6845586 37.7568783,30.6492786 37.7510383,30.6143986 L35.9091184,19.5609591 L38.0460783,18.4959992 C38.2640783,18.3870392 38.4013583,18.1637592 38.4000083,17.9199992 Z M23.039999,16.8844792 L21.759999,16.2444793 L21.759999,15.7555193 L23.039999,15.1155193 L23.039999,16.8844792 Z M26.2399988,1.27999994 L33.9199985,1.27999994 L33.9199985,2.55999989 L26.2399988,2.55999989 L26.2399988,1.27999994 Z M26.2399988,7.67999966 L26.2399988,3.83999983 L33.9199985,3.83999983 L33.9199985,7.67999966 C33.9123185,9.37543958 32.7996785,10.8675995 31.1769586,11.3587195 C30.9058386,11.4395995 30.7200786,11.6889595 30.7199986,11.9718395 L30.7199986,13.4399994 L29.4399987,13.4399994 L29.4399987,11.9718395 C29.4399187,11.6889595 29.2541587,11.4395995 28.9830387,11.3587195 C27.3603188,10.8675995 26.2476788,9.37543958 26.2399988,7.67999966 Z M28.9171187,19.8399991 L29.2825587,18.5599992 L30.1951987,18.5599992 L30.4511986,19.8399991 L28.9171187,19.8399991 Z M37.1199983,17.5244792 L34.9139184,18.6271992 C34.6623985,18.7529592 34.5223985,19.0282391 34.5689585,19.3055991 L34.6579185,19.8399991 L33.2799985,19.8399991 L33.2799985,21.1199991 L34.8710384,21.1199991 L35.0847984,22.399999 L33.9199985,22.399999 L33.9199985,23.6799989 L35.2979184,23.6799989 L35.5110384,24.9599989 L34.5599985,24.9599989 L34.5599985,26.2399988 L35.7241584,26.2399988 L35.9379184,27.5199988 L35.1999984,27.5199988 L35.1999984,28.7999987 L36.1510384,28.7999987 L36.3641584,30.0799987 L33.8041585,30.0799987 L31.3471986,17.7919992 C31.2863986,17.4939992 31.0241586,17.2799192 30.7199986,17.2799992 L24.3199989,17.2799992 L24.3199989,14.7199993 L33.4585585,14.7199993 L33.9526385,16.2022393 C34.0397585,16.4636793 34.2843985,16.6400793 34.5599985,16.6399993 L37.1199983,16.6399993 L37.1199983,17.5244792 L37.1199983,17.5244792 Z" id="Shape"></path>
                    <rect id="Rectangle" x="14.7199993" y="15.3599993" width="4.4799998" height="1.27999994"></rect>
                    <rect id="Rectangle" transform="translate(17.281545, 13.123850) rotate(-63.434949) translate(-17.281545, -13.123850) " x="16.641565" y="10.977355" width="1.27996103" height="4.2929893"></rect>
                    <rect id="Rectangle" transform="translate(17.276526, 18.879922) rotate(-26.565051) translate(-17.276526, -18.879922) " x="15.1300314" y="18.239941" width="4.2929893" height="1.27996103"></rect>
                    <rect id="Rectangle" x="12.1599995" y="15.3599993" width="1.27999994" height="1.27999994"></rect>
                    <rect id="Rectangle" x="12.7999994" y="10.8799995" width="1.27999994" height="1.27999994"></rect>
                    <rect id="Rectangle" x="10.8799995" y="12.7999994" width="1.27999994" height="1.27999994"></rect>
                    <path d="M28.7999987,7.67999966 L27.5199988,7.67999966 C27.5199988,9.09383959 28.6661587,10.2399995 30.0799987,10.2399995 L30.0799987,8.9599996 C29.3730387,8.9599996 28.7999987,8.38695963 28.7999987,7.67999966 Z" id="Path"></path>
                    <rect id="Rectangle" x="27.5199988" y="5.11999977" width="1.27999994" height="1.27999994"></rect>
                </g>
            </g>
        </g>
    </g>
</svg>